<<<<<<< HEAD
com/test/senha/ValidadorSenhaTest.class
com/test/senha/CargaValidadorSenhaTest.class
=======
com\test\senha\ValidadorSenhaTest.class
com\test\senha\CargaValidadorSenhaTest.class
>>>>>>> julia/t02
