<<<<<<< HEAD
/home/matheus/Coding/PSS/trabalhopss/validadorsenha-master/src/test/java/com/test/senha/ValidadorSenhaTest.java
/home/matheus/Coding/PSS/trabalhopss/validadorsenha-master/src/test/java/com/test/senha/CargaValidadorSenhaTest.java
=======
D:\Documentos\UFES\Projetos de Software\T01\trabalhopss\validadorsenha-master\src\test\java\com\test\senha\CargaValidadorSenhaTest.java
D:\Documentos\UFES\Projetos de Software\T01\trabalhopss\validadorsenha-master\src\test\java\com\test\senha\ValidadorSenhaTest.java
>>>>>>> julia/t02
